%YAML 1.1
%TAG !u! tag:unity3d.com,2011:
--- !u!114 &11400000
MonoBehaviour:
  m_ObjectHideFlags: 0
  m_CorrespondingSourceObject: {fileID: 0}
  m_PrefabInstance: {fileID: 0}
  m_PrefabAsset: {fileID: 0}
  m_GameObject: {fileID: 0}
  m_Enabled: 1
  m_EditorHideFlags: 0
  m_Script: {fileID: 11500000, guid: ba3c4f97d9f574edb82d18d4b3cd86c5, type: 3}
  m_Name: Gem_P3
  m_EditorClassIdentifier: 
  cardName: Gem +3
  cardDescription: All abilities increase by 3
  cardImage: {fileID: -8432134523103363349, guid: 9fd5306e7a9584ce8b85e7ac92e71653,
    type: 3}
  cardType: 3
  health: 3
  power: 3
  toughness: 3
  itemCount: 0
