%YAML 1.1
%TAG !u! tag:unity3d.com,2011:
--- !u!114 &11400000
MonoBehaviour:
  m_ObjectHideFlags: 0
  m_CorrespondingSourceObject: {fileID: 0}
  m_PrefabInstance: {fileID: 0}
  m_PrefabAsset: {fileID: 0}
  m_GameObject: {fileID: 0}
  m_Enabled: 1
  m_EditorHideFlags: 0
  m_Script: {fileID: 11500000, guid: ba3c4f97d9f574edb82d18d4b3cd86c5, type: 3}
  m_Name: Kian
  m_EditorClassIdentifier: 
  cardName: Kian
  cardDescription: Kian
  cardImage: {fileID: 255001972926481289, guid: 4d1402e4fd9e8457ea996c409a37c065,
    type: 3}
  cardType: 0
  health: 3
  power: 9
  toughness: 4
  itemCount: 3
